…
sctype_scores = cL_resutls %>% group_by(cluster) %>% top_n(n = 1, wt = scores)  

# set low-confident (low ScType score) clusters to "unknown"
sctype_scores$type[as.numeric(as.character(sctype_scores$scores)) < sctype_scores$ncells/4] = "Unknown"
print(sctype_scores[,1:3])
```

    ## # A tibble: 24 × 3
    ## # Groups:   cluster [24]
    ##    cluster type                  scores
    ##    <fct>   <chr>                  <dbl>
    ##  1 0       Unknown                 206.
    ##  2 8       Neuroblasts             579.
    ##  3 22      Radial glial cells      355.
    ##  4 13      Radial glial cells     1419.
    ##  5 1       Glutamatergic neurons   373.
    ##  6 11      Dopaminergic neurons    217.
    ##  7 18      GABAergic neurons       461.
    ##  8 2       GABAergic neurons       495.
    ##  9 6       Mature neurons          318.
    ## 10 5       Unknown                 150.
    ## # ℹ 14 more rows
…
sctype_scores = cL_resutls %>% group_by(cluster) %>% top_n(n = 1, wt = scores)  

# set low-confident (low ScType score) clusters to "unknown"
sctype_scores$type[as.numeric(as.character(sctype_scores$scores)) < sctype_scores$ncells/4] = "Unknown"
print(sctype_scores[,1:3])
```

    ## # A tibble: 24 × 3
    ## # Groups:   cluster [24]
    ##    cluster type                    scores
    ##    <fct>   <chr>                    <dbl>
    ##  1 0       Upper Excitatory Layers   530.
    ##  2 8       CGE INs                  1224.
    ##  3 22      Immature Astrocytes      1162.
    ##  4 13      Glioblasts               1280.
    ##  5 1       Maturing Excitatory      1042.
    ##  6 11      Deep Excitatory Layers    534.
    ##  7 18      MGE INs                   480.
    ##  8 2       Upper Excitatory Layers   605.
    ##  9 6       Deep Excitatory Layers    732.
    ## 10 5       Immature Excitatory       516.
    ## # ℹ 14 more rows
…
